<?xml version="1.0" encoding="UTF-8" standalone="no"?>
<!-- Created with Inkscape (http://www.inkscape.org/) -->

<svg
   xmlns:dc="http://purl.org/dc/elements/1.1/"
   xmlns:cc="http://creativecommons.org/ns#"
   xmlns:rdf="http://www.w3.org/1999/02/22-rdf-syntax-ns#"
   xmlns:svg="http://www.w3.org/2000/svg"
   xmlns="http://www.w3.org/2000/svg"
   xmlns:sodipodi="http://sodipodi.sourceforge.net/DTD/sodipodi-0.dtd"
   xmlns:inkscape="http://www.inkscape.org/namespaces/inkscape"
   width="80"
   height="61.538464"
   id="svg2"
   version="1.1"
   inkscape:version="0.91 r"
   sodipodi:docname="PrivateMessage-Production2.svg">
  <defs
     id="defs4" />
  <sodipodi:namedview
     id="base"
     pagecolor="#ffffff"
     bordercolor="#666666"
     borderopacity="1.0"
     inkscape:pageopacity="0.0"
     inkscape:pageshadow="2"
     inkscape:zoom="4"
     inkscape:cx="75.713141"
     inkscape:cy="57.127274"
     inkscape:document-units="px"
     inkscape:current-layer="svg2"
     showgrid="true"
     inkscape:snap-bbox="true"
     inkscape:snap-bbox-midpoints="false"
     showguides="false"
     inkscape:guide-bbox="true"
     inkscape:bbox-nodes="true"
     inkscape:snap-bbox-edge-midpoints="false"
     inkscape:object-paths="true"
     inkscape:snap-intersection-paths="true"
     inkscape:snap-midpoints="false"
     inkscape:object-nodes="true"
     inkscape:window-width="1680"
     inkscape:window-height="1026"
     inkscape:window-x="0"
     inkscape:window-y="24"
     inkscape:window-maximized="1"
     fit-margin-top="0"
     fit-margin-left="0"
     fit-margin-right="0"
     fit-margin-bottom="0"
     showborder="true">
    <sodipodi:guide
       orientation="0,1"
       position="69.71428,25.285707"
       id="guide2987" />
    <sodipodi:guide
       orientation="0,1"
       position="69.71428,28.535707"
       id="guide2991" />
    <sodipodi:guide
       orientation="1,0"
       position="59.71428,31.785707"
       id="guide2993" />
    <sodipodi:guide
       orientation="1,0"
       position="79.71428,31.785707"
       id="guide2995" />
    <sodipodi:guide
       orientation="1,0"
       position="49.71428,31.785707"
       id="guide3001" />
    <sodipodi:guide
       orientation="1,0"
       position="89.71429,31.785707"
       id="guide3003" />
    <sodipodi:guide
       orientation="0,1"
       position="79.71428,31.785707"
       id="guide3005" />
    <sodipodi:guide
       orientation="1,0"
       position="54.71428,28.535707"
       id="guide3780" />
    <sodipodi:guide
       orientation="1,0"
       position="84.71429,28.535707"
       id="guide3782" />
    <sodipodi:guide
       orientation="0,1"
       position="69.71428,22.035707"
       id="guide3784" />
    <sodipodi:guide
       orientation="1,0"
       position="57.21428,28.535707"
       id="guide3786" />
    <sodipodi:guide
       orientation="1,0"
       position="82.21429,28.535707"
       id="guide3788" />
    <inkscape:grid
       type="xygrid"
       id="grid3790"
       empspacing="5"
       visible="true"
       enabled="true"
       snapvisiblegridlinesonly="true"
       originx="-186"
       originy="-703" />
    <sodipodi:guide
       orientation="0,1"
       position="13,10.535257"
       id="guide3807" />
  </sodipodi:namedview>
  <metadata
     id="metadata7">
    <rdf:RDF>
      <cc:Work
         rdf:about="">
        <dc:format>image/svg+xml</dc:format>
        <dc:type
           rdf:resource="http://purl.org/dc/dcmitype/StillImage" />
        <dc:title></dc:title>
      </cc:Work>
    </rdf:RDF>
  </metadata>
  <path
     style="fill:#000000;fill-opacity:1;fill-rule:nonzero;stroke:none"
     d="M 72.259617,9.5406486 50.504807,31.295458 54.85577,35.64642 76.616588,13.891611 72.259617,9.5406486 Z m -59.951925,2.8064914 0,3.034856 27.692309,14.735576 15.667067,-8.335336 9.435096,-9.435096 -52.794472,0 z m 0,9.308894 0,27.614183 55.384616,0 0,-22.109375 -10.661058,10.661058 -2.17548,2.17548 -3.076923,3.076923 -8.701923,0.006 0,-7.433892 0,-0.841347 -2.469951,1.316104 -0.606972,0.354568 -0.606973,-0.354569 -27.085336,-14.465143 z m 36.021635,11.814903 -2.175481,2.175483 0,4.35096 4.350961,0 2.175483,-2.17548 -4.350963,-4.350963 z"
     id="rect3796"
     inkscape:connector-curvature="0" />
</svg>
